companiaAseoUrbano,49,50
petrocasa,50,48
petrocasa,51,48
petrocasa,51,49
aguasDeMerida,51,50
carretera6,52,45
carretera6,52,46
carretera6,52,47
carretera6,52,48
carretera6,52,49
carretera6,52,50
carretera,52,51
carretera,52,52
carretera6,52,53
carretera6,52,54
carretera6,52,55
carretera6,52,56
carretera6,52,57
carretera6,52,58
gobernacionMerida,53,48
montana,55,49
montana,55,55
